{
  "page": 1,
  "per_page": 6,
  "total": 12,
  "total_pages": 2,
  "data": [
    {
      "email": "george.bluth@reqres.in",
      "first_name": "George",
      "name": "Bluth",
      "image": "https://reqres.in/img/faces/1-image.jpg",
      "ingredients" : "Onions, Tomatoes, green papaer",
      "instructions" : "Lorem ipsum dolor sit amet, consectetur adipiscing elit, sed do eiusmod tempor incididunt ut labore et dolore magna aliqua. Ut enim ad minim veniam, quis nostrud",
      "time" : "02:00"
    },
    {
      "id": 2,
      "email": "janet.weaver@reqres.in",
      "first_name": "Janet",
      "name": "Weaver",
      "image": "https://reqres.in/img/faces/2-image.jpg",
      "ingredients" : "Onions, Tomatoes, green papaer",
      "instructions" : "Lorem ipsum dolor sit amet, consectetur adipiscing elit, sed do eiusmod tempor incididunt ut labore et dolore magna aliqua. Ut enim ad minim veniam, quis nostrud",
      "time" : "02:50"
    },
    {
      "id": 3,
      "email": "emma.wong@reqres.in",
      "first_name": "Emma",
      "name": "Wong",
      "image": "https://reqres.in/img/faces/3-image.jpg",
      "ingredients" : "Onions, Tomatoes, green papaer",
      "instructions" : "Lorem ipsum dolor sit amet, consectetur adipiscing elit, sed do eiusmod tempor incididunt ut labore et dolore magna aliqua. Ut enim ad minim veniam, quis nostrud",
      "time" : "02400"
    },
    {
      "id": 4,
      "email": "eve.holt@reqres.in",
      "first_name": "Eve",
      "name": "Holt",
      "image": "https://reqres.in/img/faces/4-image.jpg",
      "ingredients" : "Onions, Tomatoes, green papaer",
      "instructions" : "Lorem ipsum dolor sit amet, consectetur adipiscing elit, sed do eiusmod tempor incididunt ut labore et dolore magna aliqua. Ut enim ad minim veniam, quis nostrud",
      "time" : "02:10"
    },
    {
      "id": 5,
      "email": "charles.morris@reqres.in",
      "first_name": "Charles",
      "name": "Morris",
      "image": "https://reqres.in/img/faces/5-image.jpg",
      "ingredients" : "Onions, Tomatoes, green papaer",
      "instructions" : "Lorem ipsum dolor sit amet, consectetur adipiscing elit, sed do eiusmod tempor incididunt ut labore et dolore magna aliqua. Ut enim ad minim veniam, quis nostrud",
      "time" : "01:00"
    },
    {
      "id": 6,
      "email": "tracey.ramos@reqres.in",
      "first_name": "Tracey",
      "name": "Ramos",
      "image": "https://reqres.in/img/faces/6-image.jpg",
      "ingredients" : "Onions, Tomatoes, green papaer",
      "instructions" : "Lorem ipsum dolor sit amet, consectetur adipiscing elit, sed do eiusmod tempor incididunt ut labore et dolore magna aliqua. Ut enim ad minim veniam, quis nostrud",
      "time" : "04:00"
    }
  ],
  "support": {
    "url": "https://reqres.in/#support-heading",
    "text": "To keep ReqRes free, contributions towards server costs are appreciated!",
    "ingredients" : "Onions, Tomatoes, green papaer",
    "instructions" : "Lorem ipsum dolor sit amet, consectetur adipiscing elit, sed do eiusmod tempor incididunt ut labore et dolore magna aliqua. Ut enim ad minim veniam, quis nostrud",
    "time" : "02:01"
  }
}